%YAML 1.1
%TAG !u! tag:unity3d.com,2011:
--- !u!114 &11400000
MonoBehaviour:
  m_ObjectHideFlags: 0
  m_CorrespondingSourceObject: {fileID: 0}
  m_PrefabInstance: {fileID: 0}
  m_PrefabAsset: {fileID: 0}
  m_GameObject: {fileID: 0}
  m_Enabled: 1
  m_EditorHideFlags: 0
  m_Script: {fileID: 11500000, guid: a3120424347cf064c8efbebfcd49ae82, type: 3}
  m_Name: Pocion
  m_EditorClassIdentifier: 
  sprite: {fileID: 21300000, guid: b13ee3464d882be4a9b296ddfec16eda, type: 3}
  nombre: Pocion
  apilable: 1
  descripcion: Al usarla nos curamos el Hp
