%YAML 1.1
%TAG !u! tag:unity3d.com,2011:
--- !u!1 &6538793630341461959
GameObject:
  m_ObjectHideFlags: 0
  m_CorrespondingSourceObject: {fileID: 0}
  m_PrefabInstance: {fileID: 0}
  m_PrefabAsset: {fileID: 0}
  serializedVersion: 6
  m_Component:
  - component: {fileID: 6278460962503942754}
  - component: {fileID: 2851432445987856713}
  m_Layer: 31
  m_Name: Houses
  m_TagString: Untagged
  m_Icon: {fileID: 0}
  m_NavMeshLayer: 0
  m_StaticEditorFlags: 0
  m_IsActive: 1
--- !u!4 &6278460962503942754
Transform:
  m_ObjectHideFlags: 0
  m_CorrespondingSourceObject: {fileID: 0}
  m_PrefabInstance: {fileID: 0}
  m_PrefabAsset: {fileID: 0}
  m_GameObject: {fileID: 6538793630341461959}
  m_LocalRotation: {x: 0, y: 0, z: 0, w: 1}
  m_LocalPosition: {x: 0, y: 0, z: 0}
  m_LocalScale: {x: 1, y: 1, z: 1}
  m_Children:
  - {fileID: 9184044313219828330}
  m_Father: {fileID: 0}
  m_RootOrder: 0
  m_LocalEulerAnglesHint: {x: 0, y: 0, z: 0}
--- !u!156049354 &2851432445987856713
Grid:
  m_ObjectHideFlags: 0
  m_CorrespondingSourceObject: {fileID: 0}
  m_PrefabInstance: {fileID: 0}
  m_PrefabAsset: {fileID: 0}
  m_GameObject: {fileID: 6538793630341461959}
  m_Enabled: 1
  m_CellSize: {x: 1, y: 1, z: 0}
  m_CellGap: {x: 0, y: 0, z: 0}
  m_CellLayout: 0
  m_CellSwizzle: 0
--- !u!1 &7479575716326441877
GameObject:
  m_ObjectHideFlags: 0
  m_CorrespondingSourceObject: {fileID: 0}
  m_PrefabInstance: {fileID: 0}
  m_PrefabAsset: {fileID: 0}
  serializedVersion: 6
  m_Component:
  - component: {fileID: 9184044313219828330}
  - component: {fileID: 5473182383606914721}
  - component: {fileID: 7513401487853553888}
  m_Layer: 31
  m_Name: Layer1
  m_TagString: Untagged
  m_Icon: {fileID: 0}
  m_NavMeshLayer: 0
  m_StaticEditorFlags: 0
  m_IsActive: 1
--- !u!4 &9184044313219828330
Transform:
  m_ObjectHideFlags: 0
  m_CorrespondingSourceObject: {fileID: 0}
  m_PrefabInstance: {fileID: 0}
  m_PrefabAsset: {fileID: 0}
  m_GameObject: {fileID: 7479575716326441877}
  m_LocalRotation: {x: -0, y: -0, z: -0, w: 1}
  m_LocalPosition: {x: 0, y: 0, z: 0}
  m_LocalScale: {x: 1, y: 1, z: 1}
  m_Children: []
  m_Father: {fileID: 6278460962503942754}
  m_RootOrder: 0
  m_LocalEulerAnglesHint: {x: 0, y: 0, z: 0}
--- !u!1839735485 &5473182383606914721
Tilemap:
  m_ObjectHideFlags: 0
  m_CorrespondingSourceObject: {fileID: 0}
  m_PrefabInstance: {fileID: 0}
  m_PrefabAsset: {fileID: 0}
  m_GameObject: {fileID: 7479575716326441877}
  m_Enabled: 1
  m_Tiles:
  - first: {x: -1, y: -10, z: 0}
    second:
      serializedVersion: 2
      m_TileIndex: 41
      m_TileSpriteIndex: 41
      m_TileMatrixIndex: 0
      m_TileColorIndex: 0
      m_TileObjectToInstantiateIndex: 65535
      m_AllTileFlags: 1073741825
  - first: {x: -1, y: -9, z: 0}
    second:
      serializedVersion: 2
      m_TileIndex: 36
      m_TileSpriteIndex: 36
      m_TileMatrixIndex: 0
      m_TileColorIndex: 0
      m_TileObjectToInstantiateIndex: 65535
      m_AllTileFlags: 1073741825
  - first: {x: 0, y: -9, z: 0}
    second:
      serializedVersion: 2
      m_TileIndex: 37
      m_TileSpriteIndex: 37
      m_TileMatrixIndex: 0
      m_TileColorIndex: 0
      m_TileObjectToInstantiateIndex: 65535
      m_AllTileFlags: 1073741825
  - first: {x: 1, y: -9, z: 0}
    second:
      serializedVersion: 2
      m_TileIndex: 38
      m_TileSpriteIndex: 38
      m_TileMatrixIndex: 0
      m_TileColorIndex: 0
      m_TileObjectToInstantiateIndex: 65535
      m_AllTileFlags: 1073741825
  - first: {x: 2, y: -9, z: 0}
    second:
      serializedVersion: 2
      m_TileIndex: 39
      m_TileSpriteIndex: 39
      m_TileMatrixIndex: 0
      m_TileColorIndex: 0
      m_TileObjectToInstantiateIndex: 65535
      m_AllTileFlags: 1073741825
  - first: {x: 3, y: -9, z: 0}
    second:
      serializedVersion: 2
      m_TileIndex: 40
      m_TileSpriteIndex: 40
      m_TileMatrixIndex: 0
      m_TileColorIndex: 0
      m_TileObjectToInstantiateIndex: 65535
      m_AllTileFlags: 1073741825
  - first: {x: -1, y: -8, z: 0}
    second:
      serializedVersion: 2
      m_TileIndex: 31
      m_TileSpriteIndex: 31
      m_TileMatrixIndex: 0
      m_TileColorIndex: 0
      m_TileObjectToInstantiateIndex: 65535
      m_AllTileFlags: 1073741825
  - first: {x: 0, y: -8, z: 0}
    second:
      serializedVersion: 2
      m_TileIndex: 32
      m_TileSpriteIndex: 32
      m_TileMatrixIndex: 0
      m_TileColorIndex: 0
      m_TileObjectToInstantiateIndex: 65535
      m_AllTileFlags: 1073741825
  - first: {x: 1, y: -8, z: 0}
    second:
      serializedVersion: 2
      m_TileIndex: 33
      m_TileSpriteIndex: 33
      m_TileMatrixIndex: 0
      m_TileColorIndex: 0
      m_TileObjectToInstantiateIndex: 65535
      m_AllTileFlags: 1073741825
  - first: {x: 2, y: -8, z: 0}
    second:
      serializedVersion: 2
      m_TileIndex: 34
      m_TileSpriteIndex: 34
      m_TileMatrixIndex: 0
      m_TileColorIndex: 0
      m_TileObjectToInstantiateIndex: 65535
      m_AllTileFlags: 1073741825
  - first: {x: 3, y: -8, z: 0}
    second:
      serializedVersion: 2
      m_TileIndex: 35
      m_TileSpriteIndex: 35
      m_TileMatrixIndex: 0
      m_TileColorIndex: 0
      m_TileObjectToInstantiateIndex: 65535
      m_AllTileFlags: 1073741825
  - first: {x: -1, y: -7, z: 0}
    second:
      serializedVersion: 2
      m_TileIndex: 26
      m_TileSpriteIndex: 26
      m_TileMatrixIndex: 0
      m_TileColorIndex: 0
      m_TileObjectToInstantiateIndex: 65535
      m_AllTileFlags: 1073741825
  - first: {x: 0, y: -7, z: 0}
    second:
      serializedVersion: 2
      m_TileIndex: 27
      m_TileSpriteIndex: 27
      m_TileMatrixIndex: 0
      m_TileColorIndex: 0
      m_TileObjectToInstantiateIndex: 65535
      m_AllTileFlags: 1073741825
  - first: {x: 1, y: -7, z: 0}
    second:
      serializedVersion: 2
      m_TileIndex: 28
      m_TileSpriteIndex: 28
      m_TileMatrixIndex: 0
      m_TileColorIndex: 0
      m_TileObjectToInstantiateIndex: 65535
      m_AllTileFlags: 1073741825
  - first: {x: 2, y: -7, z: 0}
    second:
      serializedVersion: 2
      m_TileIndex: 29
      m_TileSpriteIndex: 29
      m_TileMatrixIndex: 0
      m_TileColorIndex: 0
      m_TileObjectToInstantiateIndex: 65535
      m_AllTileFlags: 1073741825
  - first: {x: 3, y: -7, z: 0}
    second:
      serializedVersion: 2
      m_TileIndex: 30
      m_TileSpriteIndex: 30
      m_TileMatrixIndex: 0
      m_TileColorIndex: 0
      m_TileObjectToInstantiateIndex: 65535
      m_AllTileFlags: 1073741825
  - first: {x: -1, y: -6, z: 0}
    second:
      serializedVersion: 2
      m_TileIndex: 21
      m_TileSpriteIndex: 21
      m_TileMatrixIndex: 0
      m_TileColorIndex: 0
      m_TileObjectToInstantiateIndex: 65535
      m_AllTileFlags: 1073741825
  - first: {x: 0, y: -6, z: 0}
    second:
      serializedVersion: 2
      m_TileIndex: 22
      m_TileSpriteIndex: 22
      m_TileMatrixIndex: 0
      m_TileColorIndex: 0
      m_TileObjectToInstantiateIndex: 65535
      m_AllTileFlags: 1073741825
  - first: {x: 1, y: -6, z: 0}
    second:
      serializedVersion: 2
      m_TileIndex: 23
      m_TileSpriteIndex: 23
      m_TileMatrixIndex: 0
      m_TileColorIndex: 0
      m_TileObjectToInstantiateIndex: 65535
      m_AllTileFlags: 1073741825
  - first: {x: 2, y: -6, z: 0}
    second:
      serializedVersion: 2
      m_TileIndex: 24
      m_TileSpriteIndex: 24
      m_TileMatrixIndex: 0
      m_TileColorIndex: 0
      m_TileObjectToInstantiateIndex: 65535
      m_AllTileFlags: 1073741825
  - first: {x: 3, y: -6, z: 0}
    second:
      serializedVersion: 2
      m_TileIndex: 25
      m_TileSpriteIndex: 25
      m_TileMatrixIndex: 0
      m_TileColorIndex: 0
      m_TileObjectToInstantiateIndex: 65535
      m_AllTileFlags: 1073741825
  - first: {x: 0, y: -5, z: 0}
    second:
      serializedVersion: 2
      m_TileIndex: 18
      m_TileSpriteIndex: 18
      m_TileMatrixIndex: 0
      m_TileColorIndex: 0
      m_TileObjectToInstantiateIndex: 65535
      m_AllTileFlags: 1073741825
  - first: {x: 1, y: -5, z: 0}
    second:
      serializedVersion: 2
      m_TileIndex: 19
      m_TileSpriteIndex: 19
      m_TileMatrixIndex: 0
      m_TileColorIndex: 0
      m_TileObjectToInstantiateIndex: 65535
      m_AllTileFlags: 1073741825
  - first: {x: 2, y: -5, z: 0}
    second:
      serializedVersion: 2
      m_TileIndex: 20
      m_TileSpriteIndex: 20
      m_TileMatrixIndex: 0
      m_TileColorIndex: 0
      m_TileObjectToInstantiateIndex: 65535
      m_AllTileFlags: 1073741825
  - first: {x: -1, y: -4, z: 0}
    second:
      serializedVersion: 2
      m_TileIndex: 14
      m_TileSpriteIndex: 14
      m_TileMatrixIndex: 0
      m_TileColorIndex: 0
      m_TileObjectToInstantiateIndex: 65535
      m_AllTileFlags: 1073741825
  - first: {x: 0, y: -4, z: 0}
    second:
      serializedVersion: 2
      m_TileIndex: 15
      m_TileSpriteIndex: 15
      m_TileMatrixIndex: 0
      m_TileColorIndex: 0
      m_TileObjectToInstantiateIndex: 65535
      m_AllTileFlags: 1073741825
  - first: {x: 1, y: -4, z: 0}
    second:
      serializedVersion: 2
      m_TileIndex: 16
      m_TileSpriteIndex: 16
      m_TileMatrixIndex: 0
      m_TileColorIndex: 0
      m_TileObjectToInstantiateIndex: 65535
      m_AllTileFlags: 1073741825
  - first: {x: 2, y: -4, z: 0}
    second:
      serializedVersion: 2
      m_TileIndex: 17
      m_TileSpriteIndex: 17
      m_TileMatrixIndex: 0
      m_TileColorIndex: 0
      m_TileObjectToInstantiateIndex: 65535
      m_AllTileFlags: 1073741825
  - first: {x: 0, y: -3, z: 0}
    second:
      serializedVersion: 2
      m_TileIndex: 11
      m_TileSpriteIndex: 11
      m_TileMatrixIndex: 0
      m_TileColorIndex: 0
      m_TileObjectToInstantiateIndex: 65535
      m_AllTileFlags: 1073741825
  - first: {x: 1, y: -3, z: 0}
    second:
      serializedVersion: 2
      m_TileIndex: 12
      m_TileSpriteIndex: 12
      m_TileMatrixIndex: 0
      m_TileColorIndex: 0
      m_TileObjectToInstantiateIndex: 65535
      m_AllTileFlags: 1073741825
  - first: {x: 2, y: -3, z: 0}
    second:
      serializedVersion: 2
      m_TileIndex: 13
      m_TileSpriteIndex: 13
      m_TileMatrixIndex: 0
      m_TileColorIndex: 0
      m_TileObjectToInstantiateIndex: 65535
      m_AllTileFlags: 1073741825
  - first: {x: -1, y: -2, z: 0}
    second:
      serializedVersion: 2
      m_TileIndex: 7
      m_TileSpriteIndex: 7
      m_TileMatrixIndex: 0
      m_TileColorIndex: 0
      m_TileObjectToInstantiateIndex: 65535
      m_AllTileFlags: 1073741825
  - first: {x: 0, y: -2, z: 0}
    second:
      serializedVersion: 2
      m_TileIndex: 8
      m_TileSpriteIndex: 8
      m_TileMatrixIndex: 0
      m_TileColorIndex: 0
      m_TileObjectToInstantiateIndex: 65535
      m_AllTileFlags: 1073741825
  - first: {x: 1, y: -2, z: 0}
    second:
      serializedVersion: 2
      m_TileIndex: 9
      m_TileSpriteIndex: 9
      m_TileMatrixIndex: 0
      m_TileColorIndex: 0
      m_TileObjectToInstantiateIndex: 65535
      m_AllTileFlags: 1073741825
  - first: {x: 2, y: -2, z: 0}
    second:
      serializedVersion: 2
      m_TileIndex: 10
      m_TileSpriteIndex: 10
      m_TileMatrixIndex: 0
      m_TileColorIndex: 0
      m_TileObjectToInstantiateIndex: 65535
      m_AllTileFlags: 1073741825
  - first: {x: 0, y: -1, z: 0}
    second:
      serializedVersion: 2
      m_TileIndex: 4
      m_TileSpriteIndex: 4
      m_TileMatrixIndex: 0
      m_TileColorIndex: 0
      m_TileObjectToInstantiateIndex: 65535
      m_AllTileFlags: 1073741825
  - first: {x: 1, y: -1, z: 0}
    second:
      serializedVersion: 2
      m_TileIndex: 5
      m_TileSpriteIndex: 5
      m_TileMatrixIndex: 0
      m_TileColorIndex: 0
      m_TileObjectToInstantiateIndex: 65535
      m_AllTileFlags: 1073741825
  - first: {x: 2, y: -1, z: 0}
    second:
      serializedVersion: 2
      m_TileIndex: 6
      m_TileSpriteIndex: 6
      m_TileMatrixIndex: 0
      m_TileColorIndex: 0
      m_TileObjectToInstantiateIndex: 65535
      m_AllTileFlags: 1073741825
  - first: {x: -1, y: 0, z: 0}
    second:
      serializedVersion: 2
      m_TileIndex: 0
      m_TileSpriteIndex: 0
      m_TileMatrixIndex: 0
      m_TileColorIndex: 0
      m_TileObjectToInstantiateIndex: 65535
      m_AllTileFlags: 1073741825
  - first: {x: 0, y: 0, z: 0}
    second:
      serializedVersion: 2
      m_TileIndex: 1
      m_TileSpriteIndex: 1
      m_TileMatrixIndex: 0
      m_TileColorIndex: 0
      m_TileObjectToInstantiateIndex: 65535
      m_AllTileFlags: 1073741825
  - first: {x: 1, y: 0, z: 0}
    second:
      serializedVersion: 2
      m_TileIndex: 2
      m_TileSpriteIndex: 2
      m_TileMatrixIndex: 0
      m_TileColorIndex: 0
      m_TileObjectToInstantiateIndex: 65535
      m_AllTileFlags: 1073741825
  - first: {x: 2, y: 0, z: 0}
    second:
      serializedVersion: 2
      m_TileIndex: 3
      m_TileSpriteIndex: 3
      m_TileMatrixIndex: 0
      m_TileColorIndex: 0
      m_TileObjectToInstantiateIndex: 65535
      m_AllTileFlags: 1073741825
  m_AnimatedTiles: {}
  m_TileAssetArray:
  - m_RefCount: 1
    m_Data: {fileID: 11400000, guid: 603d1668270fcee41ad1f4502fb3d5fe, type: 2}
  - m_RefCount: 1
    m_Data: {fileID: 11400000, guid: 0d1337897bd98e44c90ed3de217b034f, type: 2}
  - m_RefCount: 1
    m_Data: {fileID: 11400000, guid: f2efd1a33124e5448bd3d67b5b3b9fd1, type: 2}
  - m_RefCount: 1
    m_Data: {fileID: 11400000, guid: 32f07d7471bcca34397c80469d8545de, type: 2}
  - m_RefCount: 1
    m_Data: {fileID: 11400000, guid: 89bb76d050662db4893e7d3ea3cb3dac, type: 2}
  - m_RefCount: 1
    m_Data: {fileID: 11400000, guid: e295a102d93885a49b8c033e80290529, type: 2}
  - m_RefCount: 1
    m_Data: {fileID: 11400000, guid: 5aaba90f75933f54db07162333886073, type: 2}
  - m_RefCount: 1
    m_Data: {fileID: 11400000, guid: ab388146fbab665458390aa0b16c3235, type: 2}
  - m_RefCount: 1
    m_Data: {fileID: 11400000, guid: d9b5862fb6f8d5c4c9efd6f77372169f, type: 2}
  - m_RefCount: 1
    m_Data: {fileID: 11400000, guid: c4177259edc1c4a439c7405a59ad9469, type: 2}
  - m_RefCount: 1
    m_Data: {fileID: 11400000, guid: 5a0fcbac52e418844ac04fbbab60b3eb, type: 2}
  - m_RefCount: 1
    m_Data: {fileID: 11400000, guid: 6407898581f087343b1b673fea63b251, type: 2}
  - m_RefCount: 1
    m_Data: {fileID: 11400000, guid: ef7504fa15eadd649a95aa0324b78e0c, type: 2}
  - m_RefCount: 1
    m_Data: {fileID: 11400000, guid: b121e987ae2b1dd4e8bc32a9dec210a6, type: 2}
  - m_RefCount: 1
    m_Data: {fileID: 11400000, guid: c00237313abc3bd4f91bf232f769b57a, type: 2}
  - m_RefCount: 1
    m_Data: {fileID: 11400000, guid: 525d76cbeed056c478a68223667a64d8, type: 2}
  - m_RefCount: 1
    m_Data: {fileID: 11400000, guid: e792a0774d0869c42ba7a79fbed32259, type: 2}
  - m_RefCount: 1
    m_Data: {fileID: 11400000, guid: 6a5c9eb2940878c41b535b05b998b4cd, type: 2}
  - m_RefCount: 1
    m_Data: {fileID: 11400000, guid: 19c933207d610ec499cd05f753670806, type: 2}
  - m_RefCount: 1
    m_Data: {fileID: 11400000, guid: 62404f65887d7224fbebebf0ceed1752, type: 2}
  - m_RefCount: 1
    m_Data: {fileID: 11400000, guid: 994ef5f9cc91d7447b1e554f9b67113a, type: 2}
  - m_RefCount: 1
    m_Data: {fileID: 11400000, guid: 02af5ce87aae4a0489e79d88586e75eb, type: 2}
  - m_RefCount: 1
    m_Data: {fileID: 11400000, guid: dc71de59efeaf4f45b462d1647359058, type: 2}
  - m_RefCount: 1
    m_Data: {fileID: 11400000, guid: 282ccd9c478c19f4fb38a33f8ba06aa1, type: 2}
  - m_RefCount: 1
    m_Data: {fileID: 11400000, guid: 5f2a22748fd1f5444b00f246e32af534, type: 2}
  - m_RefCount: 1
    m_Data: {fileID: 11400000, guid: 0bace0570284f91438ed59acc5bc4715, type: 2}
  - m_RefCount: 1
    m_Data: {fileID: 11400000, guid: f4f07dea7555a2547a233aa6bd2be535, type: 2}
  - m_RefCount: 1
    m_Data: {fileID: 11400000, guid: c483171259b26934c8d51dbb8d233d0c, type: 2}
  - m_RefCount: 1
    m_Data: {fileID: 11400000, guid: 8c9eb166ddf788047b66f12ab4d7c609, type: 2}
  - m_RefCount: 1
    m_Data: {fileID: 11400000, guid: 5073d2794250d294ebeddc75a9683218, type: 2}
  - m_RefCount: 1
    m_Data: {fileID: 11400000, guid: a3338ce7880e17a4a94f58181ae9c47e, type: 2}
  - m_RefCount: 1
    m_Data: {fileID: 11400000, guid: 1ab2a99c745ccc24d8022abdeb5a0ce7, type: 2}
  - m_RefCount: 1
    m_Data: {fileID: 11400000, guid: 1988d0803b26108469ab7a4d99930214, type: 2}
  - m_RefCount: 1
    m_Data: {fileID: 11400000, guid: f6613c880d01ca840af9f5f6e46e9b84, type: 2}
  - m_RefCount: 1
    m_Data: {fileID: 11400000, guid: 1e35cc907518d76409d3ad954a3e381a, type: 2}
  - m_RefCount: 1
    m_Data: {fileID: 11400000, guid: 0828c391798712e4fbc3da9f7c110464, type: 2}
  - m_RefCount: 1
    m_Data: {fileID: 11400000, guid: ea52af08962f48a41b906fb918f59a60, type: 2}
  - m_RefCount: 1
    m_Data: {fileID: 11400000, guid: d04cd2a685601eb4f9103d754d91bfdc, type: 2}
  - m_RefCount: 1
    m_Data: {fileID: 11400000, guid: 4704df57c534b2746afdbb11ea772f77, type: 2}
  - m_RefCount: 1
    m_Data: {fileID: 11400000, guid: 7c5e8bb8bc0d48f458a71363d79c965e, type: 2}
  - m_RefCount: 1
    m_Data: {fileID: 11400000, guid: b3ed621ec6de8e7449e0722b551b4dc8, type: 2}
  - m_RefCount: 1
    m_Data: {fileID: 11400000, guid: 70012a7a98a4ad5419e7a52358f8f187, type: 2}
  m_TileSpriteArray:
  - m_RefCount: 1
    m_Data: {fileID: -8691573683933342277, guid: 64e472000a5d1c44496ba039e4df5bda,
      type: 3}
  - m_RefCount: 1
    m_Data: {fileID: 5771941101070691164, guid: 64e472000a5d1c44496ba039e4df5bda,
      type: 3}
  - m_RefCount: 1
    m_Data: {fileID: 2998636809399091326, guid: 64e472000a5d1c44496ba039e4df5bda,
      type: 3}
  - m_RefCount: 1
    m_Data: {fileID: 5244397510856867600, guid: 64e472000a5d1c44496ba039e4df5bda,
      type: 3}
  - m_RefCount: 1
    m_Data: {fileID: 7828471287268839700, guid: 64e472000a5d1c44496ba039e4df5bda,
      type: 3}
  - m_RefCount: 1
    m_Data: {fileID: -2408946086028082919, guid: 64e472000a5d1c44496ba039e4df5bda,
      type: 3}
  - m_RefCount: 1
    m_Data: {fileID: -3451070813074174374, guid: 64e472000a5d1c44496ba039e4df5bda,
      type: 3}
  - m_RefCount: 1
    m_Data: {fileID: 1469279672313382088, guid: 9630832918cf18349811e613936b9e0a,
      type: 3}
  - m_RefCount: 1
    m_Data: {fileID: -3681484905403267726, guid: 9630832918cf18349811e613936b9e0a,
      type: 3}
  - m_RefCount: 1
    m_Data: {fileID: 351479449088129674, guid: 9630832918cf18349811e613936b9e0a, type: 3}
  - m_RefCount: 1
    m_Data: {fileID: -3144487421154535941, guid: 9630832918cf18349811e613936b9e0a,
      type: 3}
  - m_RefCount: 1
    m_Data: {fileID: -1151638321654263511, guid: 9630832918cf18349811e613936b9e0a,
      type: 3}
  - m_RefCount: 1
    m_Data: {fileID: 8450638877497420100, guid: 9630832918cf18349811e613936b9e0a,
      type: 3}
  - m_RefCount: 1
    m_Data: {fileID: -3862876427840777261, guid: 9630832918cf18349811e613936b9e0a,
      type: 3}
  - m_RefCount: 1
    m_Data: {fileID: 6622381069016278473, guid: 1389a59594b27554fac3b877b0370b5c,
      type: 3}
  - m_RefCount: 1
    m_Data: {fileID: 8817537945674350746, guid: 1389a59594b27554fac3b877b0370b5c,
      type: 3}
  - m_RefCount: 1
    m_Data: {fileID: -8489728430242095646, guid: 1389a59594b27554fac3b877b0370b5c,
      type: 3}
  - m_RefCount: 1
    m_Data: {fileID: -4926539038937566205, guid: 1389a59594b27554fac3b877b0370b5c,
      type: 3}
  - m_RefCount: 1
    m_Data: {fileID: 3483869813933883722, guid: 1389a59594b27554fac3b877b0370b5c,
      type: 3}
  - m_RefCount: 1
    m_Data: {fileID: 7085969524676218893, guid: 1389a59594b27554fac3b877b0370b5c,
      type: 3}
  - m_RefCount: 1
    m_Data: {fileID: 6084811101442563168, guid: 1389a59594b27554fac3b877b0370b5c,
      type: 3}
  - m_RefCount: 1
    m_Data: {fileID: -2604552862387469721, guid: b91b946941c677d4197d75d67e6421f0,
      type: 3}
  - m_RefCount: 1
    m_Data: {fileID: 602121469357523144, guid: b91b946941c677d4197d75d67e6421f0, type: 3}
  - m_RefCount: 1
    m_Data: {fileID: -6570544423868121585, guid: b91b946941c677d4197d75d67e6421f0,
      type: 3}
  - m_RefCount: 1
    m_Data: {fileID: 7965594677285234130, guid: b91b946941c677d4197d75d67e6421f0,
      type: 3}
  - m_RefCount: 1
    m_Data: {fileID: 7576604784921677500, guid: b91b946941c677d4197d75d67e6421f0,
      type: 3}
  - m_RefCount: 1
    m_Data: {fileID: 1573914040304467101, guid: b91b946941c677d4197d75d67e6421f0,
      type: 3}
  - m_RefCount: 1
    m_Data: {fileID: -3402515034192137680, guid: b91b946941c677d4197d75d67e6421f0,
      type: 3}
  - m_RefCount: 1
    m_Data: {fileID: 8378678839032312127, guid: 0df9c72d40d49444e98458eeaaafbd41,
      type: 3}
  - m_RefCount: 1
    m_Data: {fileID: -7650296338752486802, guid: 0df9c72d40d49444e98458eeaaafbd41,
      type: 3}
  - m_RefCount: 1
    m_Data: {fileID: -2969803116513072678, guid: 0df9c72d40d49444e98458eeaaafbd41,
      type: 3}
  - m_RefCount: 1
    m_Data: {fileID: -1962635370892534590, guid: 0df9c72d40d49444e98458eeaaafbd41,
      type: 3}
  - m_RefCount: 1
    m_Data: {fileID: -252050229290223366, guid: 0df9c72d40d49444e98458eeaaafbd41,
      type: 3}
  - m_RefCount: 1
    m_Data: {fileID: -8421143800057570065, guid: 0df9c72d40d49444e98458eeaaafbd41,
      type: 3}
  - m_RefCount: 1
    m_Data: {fileID: -8493152446285625807, guid: 0df9c72d40d49444e98458eeaaafbd41,
      type: 3}
  - m_RefCount: 1
    m_Data: {fileID: 2397250432373076486, guid: e767a07b4d385774c98092583fc451c8,
      type: 3}
  - m_RefCount: 1
    m_Data: {fileID: -5905300057414374124, guid: e767a07b4d385774c98092583fc451c8,
      type: 3}
  - m_RefCount: 1
    m_Data: {fileID: 6799411108144129784, guid: e767a07b4d385774c98092583fc451c8,
      type: 3}
  - m_RefCount: 1
    m_Data: {fileID: -3057065344833986220, guid: e767a07b4d385774c98092583fc451c8,
      type: 3}
  - m_RefCount: 1
    m_Data: {fileID: 8433808157557653804, guid: e767a07b4d385774c98092583fc451c8,
      type: 3}
  - m_RefCount: 1
    m_Data: {fileID: 7785156841446835053, guid: e767a07b4d385774c98092583fc451c8,
      type: 3}
  - m_RefCount: 1
    m_Data: {fileID: 7184726686327134190, guid: e767a07b4d385774c98092583fc451c8,
      type: 3}
  m_TileMatrixArray:
  - m_RefCount: 42
    m_Data:
      e00: 1
      e01: 0
      e02: 0
      e03: 0
      e10: 0
      e11: 1
      e12: 0
      e13: 0
      e20: 0
      e21: 0
      e22: 1
      e23: 0
      e30: 0
      e31: 0
      e32: 0
      e33: 1
  m_TileColorArray:
  - m_RefCount: 42
    m_Data: {r: 1, g: 1, b: 1, a: 1}
  m_TileObjectToInstantiateArray: []
  m_AnimationFrameRate: 1
  m_Color: {r: 1, g: 1, b: 1, a: 1}
  m_Origin: {x: -1, y: -10, z: 0}
  m_Size: {x: 5, y: 11, z: 1}
  m_TileAnchor: {x: 0.5, y: 0.5, z: 0}
  m_TileOrientation: 0
  m_TileOrientationMatrix:
    e00: 1
    e01: 0
    e02: 0
    e03: 0
    e10: 0
    e11: 1
    e12: 0
    e13: 0
    e20: 0
    e21: 0
    e22: 1
    e23: 0
    e30: 0
    e31: 0
    e32: 0
    e33: 1
--- !u!483693784 &7513401487853553888
TilemapRenderer:
  m_ObjectHideFlags: 0
  m_CorrespondingSourceObject: {fileID: 0}
  m_PrefabInstance: {fileID: 0}
  m_PrefabAsset: {fileID: 0}
  m_GameObject: {fileID: 7479575716326441877}
  m_Enabled: 0
  m_CastShadows: 0
  m_ReceiveShadows: 0
  m_DynamicOccludee: 0
  m_MotionVectors: 1
  m_LightProbeUsage: 0
  m_ReflectionProbeUsage: 0
  m_RayTracingMode: 0
  m_RenderingLayerMask: 1
  m_RendererPriority: 0
  m_Materials:
  - {fileID: 10754, guid: 0000000000000000f000000000000000, type: 0}
  m_StaticBatchInfo:
    firstSubMesh: 0
    subMeshCount: 0
  m_StaticBatchRoot: {fileID: 0}
  m_ProbeAnchor: {fileID: 0}
  m_LightProbeVolumeOverride: {fileID: 0}
  m_ScaleInLightmap: 1
  m_ReceiveGI: 1
  m_PreserveUVs: 0
  m_IgnoreNormalsForChartDetection: 0
  m_ImportantGI: 0
  m_StitchLightmapSeams: 1
  m_SelectedEditorRenderState: 0
  m_MinimumChartSize: 4
  m_AutoUVMaxDistance: 0.5
  m_AutoUVMaxAngle: 89
  m_LightmapParameters: {fileID: 0}
  m_SortingLayerID: 0
  m_SortingLayer: 0
  m_SortingOrder: 0
  m_ChunkSize: {x: 32, y: 32, z: 32}
  m_ChunkCullingBounds: {x: 0, y: 0, z: 0}
  m_MaxChunkCount: 16
  m_MaxFrameAge: 16
  m_SortOrder: 0
  m_Mode: 0
  m_DetectChunkCullingBounds: 0
  m_MaskInteraction: 0
--- !u!114 &9183148645884162646
MonoBehaviour:
  m_ObjectHideFlags: 0
  m_CorrespondingSourceObject: {fileID: 0}
  m_PrefabInstance: {fileID: 0}
  m_PrefabAsset: {fileID: 0}
  m_GameObject: {fileID: 0}
  m_Enabled: 1
  m_EditorHideFlags: 0
  m_Script: {fileID: 12395, guid: 0000000000000000e000000000000000, type: 0}
  m_Name: Palette Settings
  m_EditorClassIdentifier: 
  cellSizing: 0
